Спортивное авто,Бугатти,400,70000,3
Легковое авто,Ауди,220,30000,5
Грузовое авто,КАМАЗ,160,600000,2000
Легковое авто,субару,240,30000,5
Спортивное авто,Феррари,320,2500000,3
Грузовое авто,Пижо,185,50000,2000
Грузовое авто,Пежожо,190,55000,3000
Спортивное авто,Жига,280,5000000,1
Легковое авто,Пятерка,160,228828282,9
Грузовое авто,ситроен,199,3000,1500
Спортивное авто,AudiXR,380,100000,50
Легковое авто,BMW,220,18000,7